[editor]
line_wrapping=false
line_break_column=72
auto_continue_multiline=true

[file_prefs]
final_new_line=true
ensure_convert_new_lines=false
strip_trailing_spaces=false
replace_tabs=false

[indentation]
indent_width=4
indent_type=1
indent_hard_tab_width=8
detect_indent=false
detect_indent_width=false
indent_mode=2

[project]
name=SpokaneNews
base_path=/home/marcelo/secondary/projects/android/SpokaneNews
description=

[long line marker]
long_line_behaviour=1
long_line_column=72

[files]
current_page=13
FILE_NAME_0=1757;CSS;0;EUTF-8;1;1;0;%2Fhome%2Fmarcelo%2Fsecondary%2Fprojects%2Fandroid%2FSpokaneNews%2Fapp%2Fapp.css;0;4
FILE_NAME_1=1789;Javascript;0;EUTF-8;1;1;0;%2Fhome%2Fmarcelo%2Fsecondary%2Fprojects%2Fandroid%2FSpokaneNews%2Fapp%2Fapp.js;0;4
FILE_NAME_2=683;Javascript;0;EUTF-8;1;1;0;%2Fhome%2Fmarcelo%2Fsecondary%2Fprojects%2Fandroid%2FSpokaneNews%2Fapp%2Fmodules%2Finitialize%2Finit.js;0;4
FILE_NAME_3=6539;Javascript;0;EUTF-8;1;1;0;%2Fhome%2Fmarcelo%2Fsecondary%2Fprojects%2Fandroid%2FSpokaneNews%2Fapp%2Fshared%2Ffunctions.js;0;4
FILE_NAME_4=185;XML;0;EUTF-8;1;1;0;%2Fhome%2Fmarcelo%2Fsecondary%2Fprojects%2Fandroid%2FSpokaneNews%2Fapp%2FApp_Resources%2FAndroid%2Fsrc%2Fmain%2FAndroidManifest.xml;0;4
FILE_NAME_5=4368;Javascript;0;EUTF-8;1;1;0;%2Fhome%2Fmarcelo%2Fsecondary%2Fprojects%2Fandroid%2FSpokaneNews%2Fapp%2Fmodules%2Flogin%2Flogin.js;0;4
FILE_NAME_6=0;XML;0;EUTF-8;1;1;0;%2Fhome%2Fmarcelo%2Fsecondary%2Fprojects%2Fandroid%2FSpokaneNews%2Fapp%2Fmodules%2Flogin%2Flogin.xml;0;4
FILE_NAME_7=901;XML;0;EUTF-8;1;1;0;%2Fhome%2Fmarcelo%2Fsecondary%2Fprojects%2Fandroid%2FSpokaneNews%2Fapp%2Fmodules%2Fhome%2Fhome.xml;0;4
FILE_NAME_8=10417;PHP;0;EUTF-8;1;1;0;%2Fhome%2Fmarcelo%2Fsecondary%2Fhtml%2Fwordpress%2Fwp-content%2Fplugins%2Fsb-spokanews%2Fsb-spokanews.php;0;4
FILE_NAME_9=6420;PHP;0;EUTF-8;1;1;0;%2Fhome%2Fmarcelo%2Fsecondary%2Fhtml%2Fwordpress%2Fwp-content%2Fplugins%2Fsb-spokanews%2FModels%2FFacebookModel.php;0;4
FILE_NAME_10=1987;PHP;0;EUTF-8;1;1;0;%2Fhome%2Fmarcelo%2Fsecondary%2Fhtml%2Fwordpress%2Fwp-content%2Fplugins%2Fsb-spokanews%2FModels%2FUsersModel.php;0;4
FILE_NAME_11=0;PHP;0;EUTF-8;1;1;0;%2Fhome%2Fmarcelo%2Fsecondary%2Fhtml%2Fwordpress%2Fwp-content%2Fplugins%2Fsb-spokanews%2Fclasses%2FSB_AppNotification.php;0;4
FILE_NAME_12=1763;PHP;0;EUTF-8;1;1;0;%2Fhome%2Fmarcelo%2Fsecondary%2Fhtml%2Fwordpress%2Fwp-content%2Fplugins%2Fsb-spokanews%2Fclasses%2FSB_AppFacebook.php;0;4
FILE_NAME_13=33;Markdown;0;EUTF-8;1;1;0;%2Fhome%2Fmarcelo%2Fsecondary%2Fprojects%2Fandroid%2FSpokaneNews%2FREADME.md;0;4
FILE_NAME_14=3664;Javascript;0;EUTF-8;1;1;0;%2Fhome%2Fmarcelo%2Fsecondary%2Fprojects%2Fandroid%2FSpokaneNews%2Fapp%2Fmodules%2Fprofile%2Fprofile.js;0;4
FILE_NAME_15=3895;Javascript;0;EUTF-8;1;1;0;%2Fhome%2Fmarcelo%2Fsecondary%2Fprojects%2Fandroid%2FSpokaneNews%2Fapp%2Fshared%2Fapi-wp.js;0;4
FILE_NAME_16=4145;Javascript;0;EUTF-8;1;1;0;%2Fhome%2Fmarcelo%2Fsecondary%2Fprojects%2Fandroid%2FSpokaneNews%2Fapp%2Fmodules%2Flatestnews%2Fsingle.js;0;4
FILE_NAME_17=0;Javascript;0;EUTF-8;1;1;0;%2Fhome%2Fmarcelo%2Fsecondary%2Fprojects%2Fandroid%2FSpokaneNews%2Fapp%2Fmodules%2Fregister%2Fregister.js;0;4
FILE_NAME_18=0;PHP;0;EUTF-8;1;1;0;%2Fhome%2Fmarcelo%2Fsecondary%2Fhtml%2FSBFramework%2Ftemplates%2Fsb%2Ffooter.php;0;4
FILE_NAME_19=11781;PHP;0;EUTF-8;1;1;0;%2Fhome%2Fmarcelo%2Fsecondary%2Fhtml%2FSBFramework%2Finclude%2Flibs%2Fpomo%2Fpo.php;0;4

[VTE]
last_dir=/home/marcelo/secondary/html/SBFramework/include/Classes

[prjorg]
source_patterns=*.c;*.C;*.cpp;*.cxx;*.c++;*.cc;*.m;
header_patterns=*.h;*.H;*.hpp;*.hxx;*.h++;*.hh;
ignored_dirs_patterns=.*;CVS;
ignored_file_patterns=*.o;*.obj;*.a;*.lib;*.so;*.dll;*.lo;*.la;*.class;*.jar;*.pyc;*.mo;*.gmo;
generate_tag_prefs=0
external_dirs=
